{
    "results": [
        {
            "popularity": 338.016,
            "vote_count": 621,
            "video": false,
            "poster_path": "/qdfARIhgpgZOBh3vfNhWS4hmSo3.jpg",
            "id": 330457,
            "adult": false,
            "backdrop_path": "/xJWPZIYOEFIjZpBL7SVBGnzRYXp.jpg",
            "original_language": "en",
            "original_title": "Frozen II",
            "genre_ids": [
                16,
                10402,
                10751
            ],
            "title": "Frozen II",
            "vote_average": 7.1,
            "overview": "Elsa, Anna, Kristoff and Olaf head far into the forest to learn the truth about an ancient mystery of their kingdom.",
            "release_date": "2019-11-20"
        },
        {
            "popularity": 296.046,
            "vote_count": 876,
            "video": false,
            "poster_path": "/mbm8k3GFhXS0ROd9AD1gqYbIFbM.jpg",
            "id": 398978,
            "adult": false,
            "backdrop_path": "/ww5aGS5H2tUtckxFFNOJE2790S7.jpg",
            "original_language": "en",
            "original_title": "The Irishman",
            "genre_ids": [
                80,
                18,
                36
            ],
            "title": "The Irishman",
            "vote_average": 8.2,
            "overview": "Pennsylvania, 1956. Frank Sheeran, a war veteran of Irish origin who works as a truck driver, accidentally meets mobster Russell Bufalino. Once Frank becomes his trusted man, Bufalino sends him to Chicago with the task of helping Jimmy Hoffa, a powerful union leader related to organized crime, with whom Frank will maintain a close friendship for nearly twenty years.",
            "release_date": "2019-11-01"
        },
        {
            "popularity": 161.531,
            "vote_count": 2272,
            "video": false,
            "poster_path": "/zfE0R94v1E8cuKAerbskfD3VfUt.jpg",
            "id": 474350,
            "adult": false,
            "backdrop_path": "/8moTOzunF7p40oR5XhlDvJckOSW.jpg",
            "original_language": "en",
            "original_title": "It Chapter Two",
            "genre_ids": [
                18,
                27
            ],
            "title": "It Chapter Two",
            "vote_average": 6.8,
            "overview": "27 years after overcoming the malevolent supernatural entity Pennywise, the former members of the Losers' Club, who have grown up and moved away from Derry, are brought back together by a devastating phone call.",
            "release_date": "2019-09-04"
        },
        {
            "popularity": 141.175,
            "vote_count": 627,
            "video": false,
            "poster_path": "/kTQ3J8oTTKofAVLYnds2cHUz9KO.jpg",
            "id": 522938,
            "adult": false,
            "backdrop_path": "/spYx9XQFODuqEVoPpvaJI1ksAVt.jpg",
            "original_language": "en",
            "original_title": "Rambo: Last Blood",
            "genre_ids": [
                28,
                18,
                53
            ],
            "title": "Rambo: Last Blood",
            "vote_average": 5.9,
            "overview": "After fighting his demons for decades, John Rambo now lives in peace on his family ranch in Arizona, but his rest is interrupted when Gabriela, the granddaughter of his housekeeper María, disappears after crossing the border into Mexico to meet her biological father. Rambo, who has become a true father figure for Gabriela over the years, undertakes a desperate and dangerous journey to find her.",
            "release_date": "2019-09-19"
        },
        {
            "popularity": 105.297,
            "vote_count": 565,
            "video": false,
            "poster_path": "/zBhv8rsLOfpFW2M5b6wW78Uoojs.jpg",
            "id": 540901,
            "adult": false,
            "backdrop_path": "/mBBJ3N3an8FLkp0ZpGgIJwHKhBP.jpg",
            "original_language": "en",
            "original_title": "Hustlers",
            "genre_ids": [
                35,
                80,
                18
            ],
            "title": "Hustlers",
            "vote_average": 6.2,
            "overview": "A crew of savvy former strip club employees band together to turn the tables on their Wall Street clients.",
            "release_date": "2019-09-12"
        },
        {
            "popularity": 138.95,
            "vote_count": 750,
            "video": false,
            "poster_path": "/vqzNJRH4YyquRiWxCCOH0aXggHI.jpg",
            "id": 290859,
            "adult": false,
            "backdrop_path": "/riTANvQ8GKmQbgtC1ps3OfkU43A.jpg",
            "original_language": "en",
            "original_title": "Terminator: Dark Fate",
            "genre_ids": [
                28,
                878
            ],
            "title": "Terminator: Dark Fate",
            "vote_average": 6.3,
            "overview": "Decades after Sarah Connor prevented Judgment Day, a lethal new Terminator is sent to eliminate the future leader of the resistance. In a fight to save mankind, battle-hardened Sarah Connor teams up with an unexpected ally and an enhanced super soldier to stop the deadliest Terminator yet.",
            "release_date": "2019-10-23"
        }
    ],
    "page": 1,
    "total_results": 1450,
    "dates": {
        "maximum": "2019-12-02",
        "minimum": "2019-10-15"
    },
    "total_pages": 73
}
